modul test/PIC/processor/Processor_waveform.vcd
$date
     Jun 15, 2017       00:09:20
$end

$version
 SystemC 2.3.1-Accellera --- Feb 18 2017 01:17:28
$end

$timescale
     1 ps
$end

$scope module SystemC $end
$var wire    1  aaaaa  PIC_ireq0       $end
$var wire    1  aaaab  PIC_ireq1       $end
$var wire    1  aaaac  PIC_ireq2       $end
$var wire    1  aaaad  PIC_ireq3       $end
$var wire    1  aaaae  PIC_intreq       $end
$var wire   32  aaaaf  PIC_vectno [31:0]  $end
$var wire    1  aaaag  PIC_intack_cpu       $end
$var wire    1  aaaah  CLK       $end
$upscope $end
$enddefinitions  $end

$comment
All initial values are dumped below at time 0 sec = 0 timescale units.
$end

$dumpvars
0aaaaa
0aaaab
0aaaac
0aaaad
0aaaae
b0 aaaaf
0aaaag
1aaaah
$end

#500
0aaaah

#1000
1aaaah

#1500
0aaaah

#2000
1aaaah

#2500
0aaaah

#3000
1aaaah

#3500
0aaaah

#4000
1aaaah

#4500
0aaaah

#5000
1aaaah

#5500
0aaaah

#6000
1aaaaa
1aaaae
1aaaah

#6500
0aaaah

#7000
1aaaah

#7500
0aaaah

#8000
0aaaaa
0aaaae
1aaaag
1aaaah

#8500
0aaaah

#9000
1aaaah

#9500
0aaaah

#10000
0aaaag
1aaaah

#10500
0aaaah

#11000
1aaaah

#11500
0aaaah

#12000
1aaaah

#12500
0aaaah

#13000
1aaaah

#13500
0aaaah

#14000
1aaaah

#14500
0aaaah

#15000
1aaaah

#15500
0aaaah

#16000
1aaaab
1aaaae
b1 aaaaf
1aaaah

#16500
0aaaah

#17000
1aaaah

#17500
0aaaah

#18000
0aaaab
0aaaae
1aaaag
1aaaah

#18500
0aaaah

#19000
1aaaah

#19500
0aaaah

#20000
0aaaag
1aaaah

#20500
0aaaah

#21000
1aaaah

#21500
0aaaah

#22000
1aaaah

#22500
0aaaah

#23000
1aaaah

#23500
0aaaah

#24000
1aaaah

#24500
0aaaah

#25000
1aaaah

#25500
0aaaah

#26000
1aaaac
1aaaae
b10 aaaaf
1aaaah

#26500
0aaaah

#27000
1aaaah

#27500
0aaaah

#28000
0aaaac
0aaaae
1aaaag
1aaaah

#28500
0aaaah

#29000
1aaaah

#29500
0aaaah

#30000
0aaaag
1aaaah

#30500
0aaaah

#31000
1aaaah

#31500
0aaaah

#32000
1aaaah

#32500
0aaaah

#33000
1aaaah

#33500
0aaaah

#34000
1aaaah

#34500
0aaaah

#35000
1aaaah

#35500
0aaaah

#36000
1aaaad
1aaaae
b11 aaaaf
1aaaah

#36500
0aaaah

#37000
1aaaah

#37500
0aaaah

#38000
0aaaad
0aaaae
1aaaag
1aaaah

