lab2/statemashine/statemashine_waveform.vcd
$date
     Mar 16, 2017       22:20:10
$end

$version
 SystemC 2.3.1-Accellera --- Feb 18 2017 01:17:28
$end

$timescale
     1 ps
$end

$scope module SystemC $end
$var wire    1  aaaaa  clock       $end
$var wire    1  aaaab  reset       $end
$var wire    2  aaaac  din [1:0]  $end
$var wire    2  aaaad  dout [1:0]  $end
$upscope $end
$enddefinitions  $end

$comment
All initial values are dumped below at time 0 sec = 0 timescale units.
$end

$dumpvars
1aaaaa
1aaaab
b0 aaaac
b1 aaaad
$end

#2000
0aaaaa

#4000
1aaaaa

#6000
0aaaaa
0aaaab
b10 aaaac

#8000
1aaaaa
b10 aaaad

#10000
0aaaaa

#12000
1aaaaa

#14000
0aaaaa
b0 aaaac

#16000
1aaaaa
b1 aaaad

#18000
0aaaaa
b1 aaaac

#20000
1aaaaa
b10 aaaad

#22000
0aaaaa

#24000
1aaaaa
b1 aaaad

#26000
0aaaaa
b10 aaaac

#28000
1aaaaa

#30000
0aaaaa
b0 aaaac

#32000
1aaaaa
b10 aaaad

#34000
0aaaaa

#36000
1aaaaa

#38000
0aaaaa
b1 aaaac

#40000
1aaaaa
b1 aaaad

#42000
0aaaaa
1aaaab

