lab3/FIFO_1/FIFO_waveform.vcd
$date
     Apr 07, 2017       12:10:37
$end

$version
 SystemC 2.3.1-Accellera --- Feb 18 2017 01:17:28
$end

$timescale
     1 ps
$end

$scope module SystemC $end
$var wire    1  aaaaa  clk       $end
$var wire    1  aaaab  sreset_n       $end
$var wire    8  aaaac  data_in [7:0]  $end
$var wire    1  aaaad  push       $end
$var wire    1  aaaae  pop       $end
$var wire    8  aaaaf  data_out [7:0]  $end
$var wire    1  aaaag  empty       $end
$var wire    1  aaaah  full       $end
$upscope $end
$enddefinitions  $end

$comment
All initial values are dumped below at time 0 sec = 0 timescale units.
$end

$dumpvars
1aaaaa
0aaaab
b0 aaaac
0aaaad
0aaaae
b0 aaaaf
1aaaag
0aaaah
$end

#2000
0aaaaa

#4000
1aaaaa

#6000
0aaaaa
1aaaab
b11 aaaac
1aaaad

#8000
1aaaaa
0aaaag

#10000
0aaaaa
b0 aaaac
0aaaad
1aaaae

#12000
1aaaaa
b11 aaaaf
1aaaag

#14000
0aaaaa
b100 aaaac
1aaaad
0aaaae

#16000
1aaaaa
0aaaag

#18000
0aaaaa
b101 aaaac
1aaaae

#20000
1aaaaa
b100 aaaaf

#22000
0aaaaa
b110 aaaac
0aaaae

#24000
1aaaaa
1aaaah

#26000
0aaaaa
b1000 aaaac

#28000
1aaaaa

#30000
0aaaaa
0aaaad
1aaaae

#32000
1aaaaa
b101 aaaaf
0aaaah

#34000
0aaaaa

#36000
1aaaaa
b110 aaaaf
1aaaag

#38000
0aaaaa

#40000
1aaaaa

#42000
0aaaaa

#44000
1aaaaa

#46000
0aaaaa
0aaaab

#48000
1aaaaa
b0 aaaaf

