modul test/Icache/Processor/Processor_waveform.vcd
$date
     Jun 14, 2017       23:41:24
$end

$version
 SystemC 2.3.1-Accellera --- Feb 18 2017 01:17:28
$end

$timescale
     1 ps
$end

$scope module SystemC $end
$var wire    1  aaaaa  ICACHE_ram_cs       $end
$var wire    1  aaaab  ICACHE_ram_we       $end
$var wire   32  aaaac  ICACHE_addr [31:0]  $end
$var wire   32  aaaad  ICACHE_ram_datain [31:0]  $end
$var wire   32  aaaae  ICACHE_ram_dataout [31:0]  $end
$var wire    1  aaaaf  ICACHE_icache_valid       $end
$var wire    1  aaaag  CLK       $end
$upscope $end
$enddefinitions  $end

$comment
All initial values are dumped below at time 0 sec = 0 timescale units.
$end

$dumpvars
0aaaaa
0aaaab
b0 aaaac
b0 aaaad
b0 aaaae
0aaaaf
1aaaag
$end

#500
0aaaag

#1000
1aaaag

#1500
0aaaag

#2000
1aaaag

#2500
0aaaag

#3000
1aaaag

#3500
0aaaag

#4000
1aaaag

#4500
0aaaag

#5000
1aaaag

#5500
0aaaag

#6000
1aaaaa
b11 aaaac
1aaaag

#6500
0aaaag

#7000
b11111111111111111111111111110000 aaaae
1aaaaf
1aaaag

#7500
0aaaag

#8000
0aaaaa
0aaaaf
1aaaag

#8500
0aaaag

#9000
1aaaag

#9500
0aaaag

#10000
1aaaaa
1aaaab
b11111111 aaaad
1aaaag

#10500
0aaaag

#11000
1aaaag

#11500
0aaaag

#12000
0aaaaa
1aaaag

#12500
0aaaag

#13000
1aaaag

#13500
0aaaag

#14000
1aaaag

#14500
0aaaag

#15000
1aaaag

#15500
0aaaag

#16000
1aaaag

#16500
0aaaag

#17000
1aaaag

#17500
0aaaag

#18000
1aaaaa
0aaaab
1aaaag

#18500
0aaaag

#19000
b11111111 aaaae
1aaaaf
1aaaag

#19500
0aaaag

#20000
0aaaaa
0aaaaf
1aaaag

